{
    "mot": [
        "bleu",
        "super",
        "autre",
        "bizarre",
        "difficile",
        "drôle",
        "étrange",
        "facile",
        "grave",
        "impossible",
        "jeune",
        "juste",
        "libre",
        "malade",
        "même",
        "pauvre",
        "possible",
        "propre",
        "rouge",
        "sale",
        "simple",
        "tranquille",
        "triste",
        "vide",
        "bonne",
        "toute",
        "doux",
        "faux",
        "français",
        "gros",
        "heureux",
        "mauvais",
        "sérieux",
        "vieux",
        "vrai",
        "ancien",
        "beau",
        "blanc",
        "certain",
        "chaud",
        "cher",
        "clair",
        "content",
        "dernier",
        "désolé",
        "différent",
        "entier",
        "fort",
        "froid",
        "gentil",
        "grand",
        "hautain",
        "humain",
        "important",
        "joli",
        "léger",
        "meilleur",
        "pareil",
        "plein",
        "prêt",
        "prochain",
        "quoi",
        "tout",
        "vert",
        "vivant",
        "aide",
        "chef",
        "enfant",
        "garde",
        "gauche",
        "geste",
        "gosse",
        "livrer",
        "merci",
        "ombre",
        "part",
        "poche",
        "professeur",
        "tour",
        "fois",
        "madame",
        "paix",
        "année",
        "arme",
        "armée",
        "attention",
        "balle",
        "emboîter",
        "bouche",
        "carte",
        "cause",
        "chambre",
        "chance",
        "confiance",
        "couleur",
        "cour",
        "cuisine",
        "dame",
        "dent",
        "droite",
        "école",
        "église",
        "envie",
        "épaule",
        "époque",
        "équipe",
        "erreur",
        "espèce",
        "face",
        "façon",
        "faim",
        "famille",
        "faute",
        "fête",
        "fille",
        "fleur",
        "force",
        "informer",
        "guerre",
        "gueule",
        "habitude",
        "heure",
        "imager",
        "impression",
        "jambe",
        "joie",
        "journée",
        "langue",
        "lettre",
        "lèvre",
        "lumière",
        "maison",
        "maman",
        "manière",
        "merde",
        "mère",
        "minute",
        "musique",
        "nuit",
        "odeur",
        "oreille",
        "parole",
        "partie",
        "peau",
        "peine",
        "pensée",
        "personne",
        "peur",
        "photo",
        "pièce",
        "pierre",
        "place",
        "police",
        "porte",
        "présence",
        "prison",
        "putain",
        "questionner",
        "raison",
        "réponse",
        "robe",
        "route",
        "salle",
        "scène",
        "seconde",
        "sécurité",
        "semaine",
        "situation",
        "soeur",
        "soirée",
        "sorte",
        "suite",
        "table",
        "terre",
        "tête",
        "vérité",
        "ville",
        "voiture",
        "avis",
        "bois",
        "bras",
        "choix",
        "corps",
        "cours",
        "gars",
        "mois",
        "pays",
        "prix",
        "propos",
        "temps",
        "travers",
        "accord",
        "agent",
        "amour",
        "appel",
        "arbre",
        "argent",
        "avenir",
        "avion",
        "bateau",
        "bébé",
        "besoin",
        "bonheur",
        "bonjour",
        "bord",
        "boulot",
        "bout",
        "bruit",
        "bureau",
        "café",
        "camp",
        "capitaine",
        "chat",
        "chemin",
        "chéri",
        "cheval",
        "cheveu",
        "chien",
        "ciel",
        "client",
        "cœur",
        "colonel",
        "compte",
        "copain",
        "côté",
        "coup",
        "courant",
        "début",
        "départ",
        "dieu",
        "docteur",
        "dollar",
        "doute",
        "droit",
        "effet",
        "ennemi",
        "esprit",
        "état",
        "exemple",
        "fait",
        "film",
        "flic",
        "fond",
        "frère",
        "front",
        "garçon",
        "général",
        "genre",
        "goût",
        "gouvernement",
        "groupe",
        "haut",
        "homme",
        "honneur",
        "hôtel",
        "instant",
        "intérêt",
        "jardin",
        "jour",
        "journal",
        "lieu",
        "long",
        "maître",
        "mari",
        "mariage",
        "matin",
        "médecin",
        "mètre",
        "milieu",
        "million",
        "moment",
        "monde",
        "monsieur",
        "mouvement",
        "moyen",
        "noir",
        "nouveau",
        "numéro",
        "oeil",
        "oiseau",
        "oncle",
        "ordre",
        "papa",
        "parent",
        "passage",
        "passé",
        "patron",
        "père",
        "petit",
        "peuple",
        "pied",
        "plaisir",
        "plan",
        "point",
        "pourvoir",
        "second",
        "président",
        "prince",
        "problème",
        "quartier",
        "rapport",
        "regard",
        "reste",
        "retard",
        "retour",
        "rêve",
        "salut",
        "sang",
        "secret",
        "seigneur",
        "sentiment",
        "service",
        "siècle",
        "signe",
        "silence",
        "soir",
        "soldat",
        "soleil",
        "sujet",
        "téléphone",
        "train",
        "travail",
        "trou",
        "truc",
        "type",
        "vent",
        "ventre",
        "verre",
        "village",
        "visage",
        "voyage",
        "fils",
        "gens",
        "abandonner",
        "accepter",
        "accompagner",
        "acheter",
        "adorer",
        "agir",
        "aider",
        "aimer",
        "ajouter",
        "amener",
        "amuser",
        "annoncer",
        "apercevoir",
        "apparaître",
        "appeler",
        "apporter",
        "apprendre",
        "approcher",
        "arranger",
        "arrêter",
        "arriver",
        "asseoir",
        "assurer",
        "attaquer",
        "atteindre",
        "attendre",
        "avancer",
        "avoir",
        "baisser",
        "battre",
        "boire",
        "bouger",
        "brûler",
        "cacher",
        "calmer",
        "casser",
        "cesser",
        "changer",
        "chanter",
        "charger",
        "chercher",
        "choisir",
        "comment",
        "comprendre",
        "compter",
        "conduire",
        "connaître",
        "continuer",
        "coucher",
        "courir",
        "craindre",
        "crier",
        "croire",
        "danser",
        "décider",
        "découvrir",
        "dégager",
        "descendre",
        "désoler",
        "détester",
        "détruire",
        "devenir",
        "deviner",
        "devoir",
        "dire",
        "disparaître",
        "donner",
        "endormir",
        "échapper",
        "écoute",
        "éloigner",
        "embrasser",
        "empêcher",
        "emporter",
        "enlever",
        "espérer",
        "essayer",
        "être",
        "éviter",
        "excuser",
        "exister",
        "expliquer",
        "faire",
        "falloir",
        "fermer",
        "filer",
        "foutre",
        "frapper",
        "gagner",
        "garder",
        "glisser",
        "habiter",
        "ignorer",
        "imaginer",
        "importer",
        "inquiéter",
        "installer",
        "intéresser",
        "inviter",
        "jeter",
        "jouer",
        "jurer",
        "lâcher",
        "lancer",
        "lever",
        "maintenir",
        "manger",
        "manquer",
        "marcher",
        "marier",
        "mener",
        "mentir",
        "mettre",
        "monter",
        "mourir",
        "naître",
        "obliger",
        "occuper",
        "offrir",
        "oser",
        "oublier",
        "ouvrir",
        "paraître",
        "partir",
        "passer",
        "payer",
        "penser",
        "perdre",
        "permettre",
        "plaire",
        "pleurer",
        "porter",
        "poser",
        "pousser",
        "pouvoir",
        "préférer",
        "prendre",
        "préparer",
        "présenter",
        "prévenir",
        "prier",
        "promettre",
        "proposer",
        "protéger",
        "quitter",
        "raconter",
        "ramener",
        "rappeler",
        "recevoir",
        "reconnaître",
        "réfléchir",
        "refuser",
        "regarder",
        "rejoindre",
        "remarquer",
        "remettre",
        "remonter",
        "rencontrer",
        "rendre",
        "répéter",
        "répondre",
        "reprendre",
        "ressembler",
        "rester",
        "retenir",
        "retirer",
        "retourner",
        "retrouver",
        "réussir",
        "rêver",
        "rire",
        "risquer",
        "rouler",
        "sauter",
        "sauver",
        "savoir",
        "sembler",
        "sentir",
        "séparer",
        "serrer",
        "servir",
        "sortir",
        "souffrir",
        "sourire",
        "souvenir",
        "suffire",
        "suivre",
        "taire",
        "tendre",
        "tenir",
        "tenter",
        "terminer",
        "tirer",
        "tomber",
        "toucher",
        "tourner",
        "traîner",
        "traiter",
        "travailler",
        "traverser",
        "tromper",
        "trouver",
        "tuer",
        "utiliser",
        "valoir",
        "vendre",
        "venir",
        "vivre",
        "voler",
        "vouloir",
        "pluriel",
        "feminin",
        "masculin",
        "angle",
        "armoire",
        "banc",
        "cabinet",
        "carreau",
        "chaise",
        "classe",
        "clé",
        "coin",
        "couloir",
        "dossier",
        "eau",
        "écriture",
        "entrée",
        "escalier",
        "étagère",
        "étude",
        "extérieur",
        "fenêtre",
        "intérieur",
        "lavabo",
        "lecture",
        "lit",
        "marche",
        "matelas",
        "maternelle",
        "meuble",
        "mousse",
        "mur",
        "peluche",
        "placard",
        "plafond",
        "portemanteau",
        "poubelle",
        "radiateur",
        "rampe",
        "rentrée",
        "rideau",
        "robinet",
        "savon",
        "serrure",
        "serviette",
        "siège",
        "sieste",
        "sol",
        "sommeil",
        "sonnette",
        "sortie",
        "tableau",
        "tabouret",
        "tapis",
        "tiroir",
        "toilette",
        "vitre",
        "aller",
        "appuyer",
        "bâiller",
        "bosser",
        "dormir",
        "éclairer",
        "écrire",
        "emmener",
        "entrer",
        "étudier",
        "élire",
        "presser",
        "réchauffer",
        "rentrer",
        "reposer",
        "réveiller",
        "sonner",
        "assortir",
        "tricher",
        "absent",
        "assis",
        "bas",
        "couché",
        "présent",
        "crayon",
        "stylo",
        "feutre",
        "pointe",
        "mine",
        "gomme",
        "dessin",
        "coloriage",
        "rayure",
        "peinture",
        "pinceau",
        "craie",
        "papier",
        "feuille",
        "cahier",
        "carnet",
        "carton",
        "ciseaux",
        "découpage",
        "pliage",
        "pli",
        "colle",
        "affaire",
        "boîte",
        "casier",
        "caisse",
        "trousse",
        "cartable",
        "jouet",
        "jeu",
        "pion",
        "dé",
        "domino",
        "puzzle",
        "cube",
        "perle",
        "chose",
        "forme",
        "carré",
        "rond",
        "pâte à modeler",
        "tampon",
        "livre",
        "histoire",
        "bibliothèque",
        "image",
        "album",
        "titre",
        "bande dessinée",
        "conte",
        "dictionnaire",
        "magazine",
        "catalogue",
        "page",
        "ligne",
        "mot",
        "enveloppe",
        "étiquette",
        "affiche",
        "alphabet",
        "appareil",
        "caméscope",
        "cassette",
        "cédé",
        "cédérom",
        "chaîne",
        "chanson",
        "chiffre",
        "contraire",
        "différence",
        "écran",
        "filmer",
        "idée",
        "instrument",
        "intrus",
        "liste",
        "magnétoscope",
        "main",
        "micro",
        "modèle",
        "nom",
        "nombre",
        "orchestre",
        "ordinateur",
        "poster",
        "pouce",
        "prénom",
        "question",
        "radio",
        "sens",
        "tambour",
        "télécommande",
        "télévision",
        "trait",
        "trompette",
        "voix",
        "xylophone",
        "zéro",
        "rechercher",
        "chuchoter",
        "coller",
        "colorier",
        "commencer",
        "comparer",
        "construire",
        "continue",
        "copier",
        "couper",
        "déchirer",
        "décoller",
        "décorer",
        "découper",
        "demander",
        "démolir",
        "dépêcher",
        "dessiner",
        "discuter",
        "écouter",
        "effacer",
        "entendre",
        "entourer",
        "envoyer",
        "finir",
        "fouiller",
        "goûter",
        "imiter",
        "laisser",
        "lire",
        "parler",
        "peindre",
        "plier",
        "poser",
        "prendre",
        "préparer",
        "ranger",
        "réciter",
        "recommencer",
        "regarder",
        "répéter",
        "répondre",
        "sentir",
        "souligner",
        "tailler",
        "taire",
        "tenir",
        "terminer",
        "toucher",
        "travailler",
        "trier",
        "ami",
        "attention",
        "camarade",
        "colère",
        "copain",
        "coquin",
        "dame",
        "directeur",
        "directrice",
        "effort",
        "élève",
        "enfant",
        "fatigue",
        "faute",
        "fille",
        "garçon",
        "gardien",
        "madame",
        "maître",
        "maîtresse",
        "mensonge",
        "ordre",
        "personne",
        "retard",
        "travail",
        "aider",
        "défendre",
        "désobéir",
        "distribuer",
        "échanger",
        "expliquer",
        "fâcher",
        "gronder",
        "obéir",
        "obliger",
        "partager",
        "prêter",
        "priver",
        "punir",
        "quitter",
        "raconter",
        "refuser",
        "séparer",
        "blond",
        "brun",
        "calme",
        "curieux",
        "différent",
        "doux",
        "énervé",
        "gentil",
        "handicapé",
        "inséparable",
        "jaloux",
        "moyen",
        "muet",
        "poli",
        "propre",
        "roux",
        "sage",
        "sale",
        "sérieux",
        "sourd",
        "tranquille",
        "arrosoir",
        "assiette",
        "balle",
        "bateau",
        "bouchon",
        "bouteille",
        "bulles",
        "canard",
        "casserole",
        "cuillère",
        "cuvette",
        "douche",
        "entonnoir",
        "gouttes",
        "litre",
        "moulin",
        "pluie",
        "poisson",
        "pont",
        "pot",
        "roue",
        "sac en plastique",
        "saladier",
        "seau",
        "tablier",
        "tasse",
        "trous",
        "verre",
        "agiter",
        "arroser",
        "attraper",
        "avancer",
        "baigner",
        "barboter",
        "boucher",
        "bouger",
        "déborder",
        "doucher",
        "éclabousser",
        "essuyer",
        "flotter",
        "gonfler",
        "inonder",
        "jouer",
        "laver",
        "mélanger",
        "mouiller",
        "nager",
        "patauger",
        "pleuvoir",
        "plonger",
        "pousser",
        "presser",
        "recevoir",
        "remplir",
        "renverser",
        "sécher",
        "serrer",
        "souffler",
        "tirer",
        "tourner",
        "tremper",
        "verser",
        "vider",
        "vouloir",
        "amusant",
        "chaud",
        "froid",
        "humide",
        "intéressant",
        "mouillé",
        "sec",
        "transparent",
        "à moitié",
        "autant",
        "beaucoup",
        "encore",
        "moins",
        "peu",
        "plus",
        "trop",
        "anorak",
        "arc",
        "bagage",
        "baguette",
        "barbe",
        "bonnet",
        "botte",
        "bouton",
        "bretelle",
        "cagoule",
        "casque",
        "casquette",
        "ceinture",
        "chapeau",
        "chaussette",
        "chausson",
        "chaussure",
        "chemise",
        "cigarette",
        "col",
        "collant",
        "couronne",
        "cravate",
        "culotte",
        "écharpe",
        "épée",
        "fée",
        "flèche",
        "fusil",
        "gant",
        "habit",
        "jean",
        "jupe",
        "lacet",
        "laine",
        "linge",
        "lunettes",
        "magicien",
        "magie",
        "maillot",
        "manche",
        "manteau",
        "mouchoir",
        "moufle",
        "nœud",
        "paire",
        "pantalon",
        "pied",
        "poche",
        "prince",
        "pyjama",
        "reine",
        "robe",
        "roi",
        "ruban",
        "semelle",
        "soldat",
        "sorcière",
        "tache",
        "taille",
        "talon",
        "tissu",
        "tricot",
        "uniforme",
        "valise",
        "veste",
        "vêtement",
        "changer",
        "chausser",
        "couvrir",
        "déguiser",
        "déshabiller",
        "lacer",
        "ressembler",
        "clair",
        "court",
        "étroit",
        "foncé",
        "joli",
        "large",
        "multicolore",
        "nu",
        "usé",
        "bien",
        "mal",
        "mieux",
        "presque",
        "aiguille",
        "ampoule",
        "avion",
        "bois",
        "bout",
        "bricolage",
        "bruit",
        "cabane",
        "carton",
        "clou",
        "colle",
        "crochet",
        "élastique",
        "ficelle",
        "fil",
        "marionnette",
        "marteau",
        "métal",
        "mètre",
        "morceau",
        "moteur",
        "objet",
        "outil",
        "peinture",
        "pinceau",
        "planche",
        "plâtre",
        "scie",
        "tournevis",
        "vis",
        "voiture",
        "véhicule",
        "arracher",
        "attacher",
        "casser",
        "coudre",
        "détruire",
        "enfiler",
        "enfoncer",
        "fabriquer",
        "mesurer",
        "percer",
        "pincer",
        "réparer",
        "réussir",
        "servir",
        "taper",
        "trouer",
        "adroit",
        "difficile",
        "dur",
        "facile",
        "lisse",
        "maladroit",
        "pointu",
        "rugueux",
        "tordu",
        "accident",
        "aéroport",
        "auto",
        "camion",
        "engin",
        "feu",
        "frein",
        "fusée",
        "garage",
        "gare",
        "grue",
        "hélicoptère",
        "moto",
        "panne",
        "parking",
        "pilote",
        "pneu",
        "quai",
        "train",
        "virage",
        "vitesse",
        "voyage",
        "wagon",
        "zigzag",
        "atterrir",
        "bouder",
        "charger",
        "conduire",
        "démarrer",
        "disparaître",
        "donner",
        "écraser",
        "garder",
        "garer",
        "manquer",
        "partir",
        "poser",
        "reculer",
        "rouler",
        "tendre",
        "transporter",
        "voler",
        "abîmé",
        "ancien",
        "blanc",
        "bleu",
        "cassé",
        "cinq",
        "dernier",
        "deux",
        "deuxième",
        "dix",
        "gris",
        "gros",
        "huit",
        "jaune",
        "même",
        "neuf",
        "pareil",
        "premier",
        "quatre",
        "rouge",
        "sept",
        "seul",
        "seulement",
        "seule",
        "six",
        "solide",
        "trois",
        "troisième",
        "un",
        "vert",
        "autour",
        "vite",
        "acrobate",
        "arrêt",
        "arrière",
        "barre",
        "barreau",
        "bord",
        "bras",
        "cerceau",
        "chaises",
        "cheville",
        "chute",
        "cœur",
        "corde",
        "corps",
        "côté",
        "cou",
        "coude",
        "cuisse",
        "danger",
        "doigts",
        "dos",
        "échasses",
        "échelle",
        "épaule",
        "équipe",
        "escabeau",
        "fesse",
        "fond",
        "genou",
        "gymnastique",
        "hanche",
        "jambes",
        "jeu",
        "milieu",
        "montagne",
        "escalade",
        "muscle",
        "numéro",
        "ongle",
        "parcours",
        "pas",
        "passerelle",
        "pente",
        "peur",
        "pieds",
        "plongeoir",
        "poignet",
        "poing",
        "pont de singe",
        "poutre",
        "équilibre",
        "prises",
        "rivière",
        "crocodiles",
        "roulade",
        "saut",
        "serpent",
        "sport",
        "suivant",
        "tête",
        "toboggan",
        "tour",
        "trampoline",
        "tunnel",
        "ventre",
        "arriver",
        "baisser",
        "balancer",
        "bondir",
        "bousculer",
        "cogner",
        "courir",
        "danser",
        "dépasser",
        "descendre",
        "écarter",
        "escalader",
        "gagner",
        "gêner",
        "glisser",
        "grimper",
        "quatre",
        "patte",
        "debout",
        "monter",
        "pencher",
        "percher",
        "perdre",
        "ramper",
        "rater",
        "remplacer",
        "respirer",
        "s retourner",
        "revenir",
        "sauter",
        "soulever",
        "suivre",
        "tomber",
        "transpirer",
        "traverser",
        "dangereux",
        "épais",
        "fort",
        "gauche",
        "groupé",
        "immobile",
        "rond",
        "serré",
        "souple",
        "au delà",
        "ensemble",
        "jamais",
        "souvent",
        "toujours",
        "bagarre",
        "balançoire",
        "ballon",
        "bande",
        "bicyclette",
        "bille",
        "cadenas",
        "cage à écureuil",
        "château",
        "coup",
        "cour",
        "course",
        "échasse",
        "flaque",
        "paix",
        "pardon",
        "partie",
        "pédale",
        "pelle",
        "pompe",
        "préau",
        "raquette",
        "rayon",
        "récréation",
        "sable",
        "sifflet",
        "signe",
        "tas",
        "tricycle",
        "tuyau",
        "vélo",
        "filet",
        "bagarrer",
        "battre",
        "cacher",
        "cracher",
        "creuser",
        "crier",
        "dégonfler",
        "disputer",
        "empêcher",
        "galoper",
        "hurler",
        "jongler",
        "lancer",
        "pédaler",
        "plaindre",
        "pleurer",
        "poursuivre",
        "protéger",
        "saigner",
        "salir",
        "siffler",
        "surveiller",
        "traîner",
        "trouver",
        "caché",
        "fou",
        "méchant",
        "cuisine",
        "nourriture",
        "allumette",
        "anniversaire",
        "appétit",
        "beurre",
        "coquille",
        "crêpes",
        "croûte",
        "dessert",
        "envie",
        "faim",
        "fève",
        "four",
        "galette",
        "gâteau",
        "goût",
        "invitation",
        "langue",
        "lèvres",
        "liquide",
        "louche",
        "mie",
        "moitié",
        "moule",
        "odeur",
        "œuf",
        "part",
        "pâte",
        "pâtisserie",
        "recette",
        "rouleau",
        "sel",
        "soif",
        "tarte",
        "tranche",
        "yaourt",
        "aimer",
        "allumer",
        "avaler",
        "battre",
        "brûler",
        "chauffer",
        "cuire",
        "étaler",
        "éteindre",
        "falloir",
        "inviter",
        "jeter",
        "lécher",
        "oublier",
        "régaler",
        "remercier",
        "remuer",
        "souhaiter",
        "sucer",
        "barbouillé",
        "demi",
        "égal",
        "entier",
        "gourmand",
        "mauvais",
        "meilleur",
        "mince",
        "glaçon",
        "jus",
        "kiwi",
        "lame",
        "mûre",
        "noyau",
        "paille",
        "pamplemousse",
        "râpe",
        "croquer",
        "éplucher",
        "râper",
        "bassine",
        "cocotte",
        "épluchure",
        "légume",
        "rondelle",
        "soupe",
        "consommé",
        "potage",
        "bouillir",
        "mixer",
        "cru",
        "cuit",
        "vide",
        "cantine",
        "arête",
        "frite",
        "gobelet",
        "jambon",
        "os",
        "poulet",
        "purée",
        "radis",
        "restaurant",
        "sole",
        "déjeuner",
        "animaux",
        "animal",
        "domestique",
        "animal",
        "bébés",
        "bouche",
        "cage",
        "câlin",
        "caresse",
        "foin",
        "graines",
        "hamster",
        "lapin",
        "maison",
        "nez",
        "œil",
        "oreille",
        "patte",
        "toit",
        "yeux",
        "accoucher",
        "agacer",
        "appeler",
        "câliner",
        "caresser",
        "changer",
        "déranger",
        "élever",
        "enfermer",
        "enterrer",
        "gratter",
        "grignoter",
        "lâcher",
        "mordre",
        "mourir",
        "naître",
        "nourrir",
        "occuper",
        "promener",
        "ronger",
        "sauver",
        "soigner",
        "téter",
        "vivre",
        "voir",
        "abandonné",
        "enceinte",
        "maigre",
        "mort",
        "vivant",
        "ferme",
        "légume",
        "abeille",
        "agneau",
        "aile",
        "âne",
        "arbre",
        "bain",
        "barque",
        "bassin",
        "bébé",
        "bec",
        "bête",
        "bœuf",
        "botte de foin",
        "boue",
        "bouquet",
        "bourgeon",
        "branche",
        "caillou",
        "campagne",
        "car",
        "champ",
        "chariot",
        "chat",
        "cheminée",
        "cheval",
        "chèvre",
        "chien",
        "cochon",
        "colline",
        "coq",
        "coquelicot",
        "crapaud",
        "cygne",
        "départ",
        "dindon",
        "escargot",
        "étang",
        "ferme",
        "fermier",
        "feuille",
        "flamme",
        "fleur",
        "fontaine",
        "fumée",
        "grain",
        "graine",
        "grenouille",
        "griffe",
        "guêpe",
        "herbe",
        "hérisson",
        "insecte",
        "jardin",
        "mare",
        "marguerite",
        "miel",
        "morceau",
        "pain",
        "mouche",
        "mouton",
        "oie",
        "oiseau",
        "pierre",
        "pigeon",
        "plante",
        "plume",
        "poney",
        "poule",
        "poussin",
        "prairie",
        "rat",
        "rivière",
        "route",
        "tortue",
        "tracteur",
        "tulipe",
        "vache",
        "vétérinaire",
        "accompagner",
        "baigner",
        "courir",
        "couver",
        "fumer",
        "griffer",
        "habiter",
        "piquer",
        "ramasser",
        "traire",
        "bizarre",
        "énorme",
        "immense",
        "malade",
        "nain",
        "utile",
        "aigle",
        "animaux",
        "aquarium",
        "bêtes",
        "cerf",
        "chouette",
        "cigogne",
        "crocodile",
        "dauphin",
        "éléphant",
        "girafe",
        "hibou",
        "hippopotame",
        "kangourou",
        "lion",
        "loup",
        "ours",
        "panda",
        "panthère",
        "perroquet",
        "phoque",
        "renard",
        "requin",
        "rhinocéros",
        "singe",
        "tigre",
        "zèbre",
        "zoo",
        "fête",
        "carnaval",
        "épingle",
        "bâton",
        "bêtise",
        "bonhomme",
        "bottes",
        "canne",
        "cauchemar",
        "cri",
        "danse",
        "déguisement",
        "dinosaure",
        "drapeau",
        "argent",
        "or",
        "rang",
        "fête",
        "figure",
        "géant",
        "gens",
        "joie",
        "joue",
        "journaux",
        "maquillage",
        "masque",
        "monsieur",
        "moustache",
        "ogre",
        "princesse",
        "rue",
        "trottoir",
        "déguiser",
        "défiler",
        "éclater",
        "essayer",
        "moquer",
        "plaire",
        "rencontrer",
        "ressembler",
        "retourner",
        "rêver",
        "rire",
        "taper",
        "danser",
        "sauter",
        "content",
        "drôle",
        "effrayé",
        "heureux",
        "joyeux",
        "prêt",
        "riche",
        "terrible",
        "Noël",
        "boule",
        "cadeau",
        "canne",
        "pêche",
        "chance",
        "cube",
        "guirlande",
        "humeur",
        "papillon",
        "spectacle",
        "surprise",
        "trou",
        "visage",
        "maquiller",
        "électrique",
        "heure",
        "calendrier",
        "âge",
        "an",
        "année",
        "calendrier",
        "début",
        "dimanche",
        "été",
        "étoile",
        "fin",
        "heure",
        "hiver",
        "horloge",
        "jeudi",
        "jour",
        "journée",
        "lumière",
        "lundi",
        "lune",
        "mardi",
        "matin",
        "mercredi",
        "midi",
        "minuit",
        "minute",
        "mois",
        "moment",
        "montre",
        "nuit",
        "ombre",
        "pendule",
        "retour",
        "réveil",
        "saison",
        "samedi",
        "soir",
        "soleil",
        "temps",
        "univers",
        "vacances",
        "vendredi",
        "avancer",
        "briller",
        "dîner",
        "grandir",
        "chronologie",
        "retarder",
        "aîné",
        "jeune",
        "lent",
        "patient",
        "rapide",
        "sombre",
        "vieux",
        "bientôt",
        "demain",
        "hier",
        "maintenant",
        "puis",
        "avance",
        "retard",
        "météo",
        "air",
        "brouillard",
        "ciel",
        "éclair",
        "flocon",
        "goutte",
        "hirondelle",
        "luge",
        "neige",
        "nuage",
        "orage",
        "ouragan",
        "parapluie",
        "parasol",
        "ski",
        "tempête",
        "thermomètre",
        "tonnerre",
        "traîneau",
        "vent",
        "geler",
        "mouiller",
        "neiger",
        "tromper",
        "venter",
        "déçu",
        "triste",
        "chaud",
        "froid",
        "pluvieux",
        "nuageux",
        "humide",
        "gelé",
        "instable",
        "changeant",
        "assiette",
        "balai",
        "biscuit",
        "boisson",
        "bol",
        "bonbon",
        "céréale",
        "confiture",
        "coquetier",
        "couteau",
        "couvercle",
        "couvert",
        "cuillère",
        "cuisine",
        "cuisinière",
        "désordre",
        "dînette",
        "éponge",
        "évier",
        "four",
        "fourchette",
        "lait",
        "lessive",
        "machine",
        "nappe",
        "pain",
        "pile",
        "plat",
        "plateau",
        "poêle",
        "réfrigérateur",
        "repas",
        "tartine",
        "torchon",
        "vaisselle ",
        "accrocher",
        "balayer",
        "boire",
        "frotter",
        "manger",
        "nettoyer",
        "servir",
        "cuisiner ",
        "bon",
        "creux",
        "délicieux ",
        "argent",
        "aspirateur",
        "bague",
        "barrette",
        "bijou",
        "bracelet",
        "brosse",
        "cadre",
        "canapé",
        "chambre",
        "cheveu",
        "chiffon",
        "cil",
        "coffre",
        "coffret",
        "collier",
        "couette",
        "coussin",
        "couverture",
        "dent",
        "dentifrice",
        "drap",
        "fauteuil",
        "fer à repasser",
        "frange",
        "glace",
        "lampe",
        "lit",
        "ménage",
        "or",
        "oreiller",
        "parfum",
        "peigne",
        "pouf",
        "poupée",
        "poussette",
        "poussière",
        "shampoing",
        "sourcil",
        "trésor",
        "tube",
        "vase",
        "allonger",
        "coiffer",
        "hésiter",
        "laver",
        "maquiller",
        "passer",
        "préférer",
        "repasser",
        "sécher",
        "secouer",
        "téléphoner",
        "beau",
        "belle",
        "confortable",
        "coquet",
        "douillet ",
        "adulte",
        "album",
        "amour",
        "baiser",
        "bavoir",
        "biberon",
        "bisou",
        "caprice",
        "cimetière",
        "cousin",
        "cousine",
        "crèche",
        "fils",
        "frère",
        "homme",
        "femme",
        "jumeau",
        "maman",
        "mari",
        "mariage",
        "mère",
        "papa",
        "parent",
        "père",
        "rasoir",
        "sœur ",
        "baver",
        "bercer",
        "blottir",
        "consoler",
        "déménager",
        "détester",
        "marier",
        "offrir",
        "penser",
        "rappeler",
        "raser",
        "ronfler",
        "serrer",
        "tricoter",
        "accident",
        "la maladie ",
        "ambulance",
        "bosse",
        "champignon",
        "dentiste",
        "docteur",
        "fièvre",
        "front",
        "gorge",
        "infirmier",
        "infirmière",
        "jambe",
        "larme",
        "médecin",
        "menton",
        "mine",
        "ordonnance",
        "pansement",
        "peau",
        "piqûre",
        "poison",
        "sang",
        "santé",
        "squelette",
        "trousse",
        "attraper",
        "blesser",
        "détester",
        "devoir",
        "éternuer",
        "gratter",
        "guérir",
        "moucher",
        "protéger",
        "recoudre",
        "souffrir",
        "tâter",
        "tousser",
        "trembler ",
        "guéri",
        "pâle",
        "jardin ",
        "araignée",
        "brouette",
        "chenille",
        "coccinelle",
        "fourmi",
        "herbe",
        "jonquille",
        "lézard",
        "pâquerette",
        "rangée",
        "râteau",
        "rosé",
        "souris",
        "taupe",
        "terrain",
        "terre",
        "terrier",
        "tige",
        "ver ",
        "cueillir",
        "jardiner",
        "faner",
        "planter ",
        "mûr",
        "profond ",
        "portière",
        "sac ",
        "voyager ",
        "billet",
        "caisse",
        "farce",
        "grimace",
        "grotte",
        "pays",
        "regard",
        "ticket ",
        "doucher",
        "tuer ",
        "cruel ",
        "bûche",
        "buisson",
        "camp",
        "chasseur",
        "châtaigne",
        "chemin",
        "chêne",
        "corbeau",
        "écorce",
        "écureuil",
        "forêt",
        "gourde",
        "lac",
        "loupe",
        "lutin",
        "marron",
        "mûre",
        "moustique",
        "muguet",
        "nid",
        "paysage",
        "pin",
        "rocher",
        "sapin",
        "sommet",
        "tente ",
        "camper",
        "chasser",
        "griller",
        "grimper",
        "guetter",
        "jeter",
        "lancer",
        "manger",
        "montrer",
        "mouiller",
        "patauger",
        "percher",
        "perdre",
        "photographier",
        "pleuvoir",
        "poser",
        "poursuivre",
        "ramasser",
        "regarder",
        "rencontrer",
        "repos",
        "respirer",
        "revoir",
        "rêver",
        "sentir",
        "siffler",
        "transpirer",
        "traverser",
        "trouver",
        "vivre ",
        "adresse",
        "appartement",
        "ascenseur",
        "balcon",
        "boucherie",
        "boulanger",
        "boulangerie",
        "boutique",
        "bus",
        "caniveau",
        "caravane",
        "carrefour",
        "cave",
        "charcuterie",
        "cinéma",
        "cirque",
        "cloche",
        "clocher",
        "clown",
        "coiffeur",
        "courrier",
        "croix",
        "église",
        "embouteillage",
        "endroit",
        "enveloppe",
        "essence",
        "facteur",
        "fleuriste",
        "foire",
        "hôpital",
        "hôtel",
        "immeuble",
        "incendie",
        "laisse",
        "magasin",
        "manège",
        "médicament",
        "moineau",
        "monde",
        "monument",
        "ouvrier",
        "palais",
        "panneau",
        "paquet",
        "parc",
        "passage",
        "pharmacie",
        "pharmacien",
        "piscine",
        "place",
        "police",
        "policier",
        "pompier",
        "poste",
        "promenade",
        "quartier",
        "square",
        "timbre",
        "travaux",
        "usine",
        "village",
        "ville",
        "voisin",
        "volet ",
        "barrer",
        "clignoter",
        "croiser",
        "garer",
        "reconnaître",
        "retrouver",
        "saluer",
        "savoir",
        "toucher",
        "trouver",
        "visiter ",
        "important",
        "impossible",
        "prudent",
        "prépositions ",
        "abricot",
        "ail",
        "aliment",
        "ananas",
        "banane",
        "bifteck",
        "café",
        "carotte",
        "cerise",
        "chocolat",
        "chou",
        "citron",
        "citrouille",
        "clémentine",
        "concombre",
        "coquillage",
        "corbeille",
        "crabe",
        "crevette",
        "endive",
        "farine",
        "fraise",
        "framboise",
        "fromage",
        "fruit",
        "gâteau",
        "haricot",
        "huile",
        "légume",
        "marchand",
        "melon",
        "monnaie",
        "navet",
        "noisette",
        "noix",
        "nourriture",
        "oignon",
        "orange",
        "panier",
        "pâtes",
        "pêche",
        "persil",
        "poire",
        "poireau",
        "pomme",
        "prix",
        "prune",
        "queue",
        "raisin",
        "riz",
        "salade",
        "sucre",
        "thé",
        "tomate",
        "viande",
        "vin ",
        "acheter",
        "ajouter",
        "coûter",
        "payer",
        "peser",
        "rendre",
        "vendre ",
        "cher",
        "léger",
        "lourd",
        "plein ",
        "baleine",
        "bouée",
        "île",
        "jumelles",
        "marin",
        "mer",
        "mouette",
        "navire",
        "pêcheur",
        "plage",
        "poisson",
        "port",
        "sardine",
        "serviette",
        "vague",
        "voile",
        "noyer",
        "ramer",
        "nager"
    ]
}